Calculadora Soma e Subtrai/simulation/qsim/Calc-origins.msim.vcd
$comment
	File created using the following command:
		vcd file Calc-origins.msim.vcd -direction
$end
$date
	Tue Dec 16 02:11:44 2014
$end
$version
	ModelSim Version 10.1d
$end
$timescale
	1ps
$end
$scope module calculadora_soma_sub_vlg_vec_tst $end
$var reg 8 ! data_in [7:0] $end
$var reg 1 " enter $end
$var reg 1 # reset $end
$var wire 1 $ result [7] $end
$var wire 1 % result [6] $end
$var wire 1 & result [5] $end
$var wire 1 ' result [4] $end
$var wire 1 ( result [3] $end
$var wire 1 ) result [2] $end
$var wire 1 * result [1] $end
$var wire 1 + result [0] $end
$var wire 1 , sampler $end
$scope module i1 $end
$var wire 1 - gnd $end
$var wire 1 . vcc $end
$var wire 1 / unknown $end
$var tri1 1 0 devclrn $end
$var tri1 1 1 devpor $end
$var tri1 1 2 devoe $end
$var wire 1 3 ula_of_destiny|ula0|adder|cout_or~0_combout $end
$var wire 1 4 ula_of_destiny|ula2|mux_binvert|or_final~0_combout $end
$var wire 1 5 ula_of_destiny|ula3|mux_binvert|or_final~0_combout $end
$var wire 1 6 ula_of_destiny|ula5|mux_binvert|or_final~0_combout $end
$var wire 1 7 enter~combout $end
$var wire 1 8 enter~clkctrl_outclk $end
$var wire 1 9 state.S1~0_combout $end
$var wire 1 : reset~combout $end
$var wire 1 ; reset~clkctrl_outclk $end
$var wire 1 < state.S1~regout $end
$var wire 1 = state.S2~regout $end
$var wire 1 > state.S3~feeder_combout $end
$var wire 1 ? state.S3~regout $end
$var wire 1 @ state.S0~0_combout $end
$var wire 1 A state.S0~regout $end
$var wire 1 B state.S0~clkctrl_outclk $end
$var wire 1 C state.S1~clkctrl_outclk $end
$var wire 1 D ula_of_destiny|ula0|adder|big_or~0_combout $end
$var wire 1 E state.S3~clkctrl_outclk $end
$var wire 1 F result[0]$latch~combout $end
$var wire 1 G ula_of_destiny|ula1|mux_binvert|or_final~0_combout $end
$var wire 1 H ula_of_destiny|ula1|adder|big_or~1_cout $end
$var wire 1 I ula_of_destiny|ula1|adder|big_or~2_combout $end
$var wire 1 J result[1]$latch~combout $end
$var wire 1 K ula_of_destiny|ula1|adder|big_or~3 $end
$var wire 1 L ula_of_destiny|ula1|adder|big_or~4_combout $end
$var wire 1 M result[2]$latch~combout $end
$var wire 1 N ula_of_destiny|ula1|adder|big_or~5 $end
$var wire 1 O ula_of_destiny|ula1|adder|big_or~6_combout $end
$var wire 1 P result[3]$latch~combout $end
$var wire 1 Q ula_of_destiny|ula4|mux_binvert|or_final~0_combout $end
$var wire 1 R ula_of_destiny|ula1|adder|big_or~7 $end
$var wire 1 S ula_of_destiny|ula1|adder|big_or~8_combout $end
$var wire 1 T result[4]$latch~combout $end
$var wire 1 U ula_of_destiny|ula1|adder|big_or~9 $end
$var wire 1 V ula_of_destiny|ula1|adder|big_or~10_combout $end
$var wire 1 W result[5]$latch~combout $end
$var wire 1 X ula_of_destiny|ula6|mux_binvert|or_final~0_combout $end
$var wire 1 Y ula_of_destiny|ula1|adder|big_or~11 $end
$var wire 1 Z ula_of_destiny|ula1|adder|big_or~12_combout $end
$var wire 1 [ result[6]$latch~combout $end
$var wire 1 \ ula_of_destiny|ula7|mux_binvert|or_final~0_combout $end
$var wire 1 ] ula_of_destiny|ula1|adder|big_or~13 $end
$var wire 1 ^ ula_of_destiny|ula1|adder|big_or~14_combout $end
$var wire 1 _ result[7]$latch~combout $end
$var wire 1 ` reg_a [7] $end
$var wire 1 a reg_a [6] $end
$var wire 1 b reg_a [5] $end
$var wire 1 c reg_a [4] $end
$var wire 1 d reg_a [3] $end
$var wire 1 e reg_a [2] $end
$var wire 1 f reg_a [1] $end
$var wire 1 g reg_a [0] $end
$var wire 1 h data_in~combout [7] $end
$var wire 1 i data_in~combout [6] $end
$var wire 1 j data_in~combout [5] $end
$var wire 1 k data_in~combout [4] $end
$var wire 1 l data_in~combout [3] $end
$var wire 1 m data_in~combout [2] $end
$var wire 1 n data_in~combout [1] $end
$var wire 1 o data_in~combout [0] $end
$var wire 1 p reg_b [7] $end
$var wire 1 q reg_b [6] $end
$var wire 1 r reg_b [5] $end
$var wire 1 s reg_b [4] $end
$var wire 1 t reg_b [3] $end
$var wire 1 u reg_b [2] $end
$var wire 1 v reg_b [1] $end
$var wire 1 w reg_b [0] $end
$var wire 1 x reg_op [3] $end
$var wire 1 y reg_op [2] $end
$var wire 1 z reg_op [1] $end
$var wire 1 { reg_op [0] $end
$upscope $end
$upscope $end
$enddefinitions $end
#0
$dumpvars
b11010000 !
0"
0#
x/
10
11
12
x3
x4
x5
x6
07
08
19
0:
0;
0<
0=
0>
0?
1@
0A
0B
0C
xD
0E
xF
xG
0H
xI
xJ
xK
xL
xM
xN
xO
xP
xQ
xR
xS
xT
xU
xV
xW
xX
xY
xZ
x[
x\
x]
x^
x_
0g
0f
0e
0d
1c
0b
1a
1`
0o
0n
0m
x+
x*
x)
x(
x'
x&
x%
x$
x,
0-
1.
0l
1k
0j
1i
1h
xw
xv
xu
xt
xs
xr
xq
xp
z{
zz
xy
zx
$end
#500000
b1010000 !
b1110000 !
b1100000 !
b1100100 !
b1100110 !
1n
1m
0k
1j
0h
0,
1f
1e
0c
1b
0`
1H
#1500000
b1100111 !
1o
1,
1g
#2000000
b100111 !
1"
b10100111 !
b10100011 !
b10100001 !
0n
0m
0i
1h
17
18
0,
0f
0e
0a
1`
0H
1A
1<
1C
1B
09
1p
0q
0s
0v
1w
1r
0t
0u
0D
13
#2500000
b10101001 !
b10101000 !
b101000 !
b101100 !
0o
1m
1l
0h
1,
0w
1u
1t
0p
1D
x3
#3000000
b111100 !
b111101 !
1o
1k
0,
1w
1s
0D
13
#3500000
b1111101 !
b1111111 !
b1110111 !
b1100111 !
b1100110 !
0o
1n
0l
0k
1i
1,
0w
1v
0t
0s
1q
1D
x3
#4000000
b1000110 !
0"
b11000110 !
b10000110 !
b10001110 !
b10011110 !
1l
1k
0j
0i
1h
07
08
0,
1t
1s
0r
0q
1p
#4500000
b10011100 !
b10011101 !
b10010101 !
b10000101 !
1o
0n
0l
0k
1,
1w
0v
0t
0s
0D
13
#5000000
b11000101 !
b11000100 !
b11001100 !
0o
1l
1i
0,
0w
1t
1q
1D
x3
#5500000
b11101100 !
b1101100 !
b101100 !
b101101 !
1o
1j
0i
0h
1,
1w
1r
0q
0p
0D
13
#6000000
1"
b101111 !
b100111 !
b111 !
b10000111 !
b10000110 !
17
0o
1n
0l
0j
1h
18
0,
0w
1v
0t
0r
1p
1D
x3
1=
0<
0C
0y
1>
1\
0X
0Q
1G
06
05
14
03
0]
0U
1K
1I
1R
0^
1Y
1V
0N
1L
0S
0Z
0O
#6500000
b10000010 !
b11000010 !
b11000000 !
b11001000 !
b11101000 !
b1101000 !
b1101001 !
1o
0n
0m
1l
1j
1i
0h
1,
1y
0\
1X
1Q
0G
16
15
04
13
1^
1Z
1S
0Y
0V
1O
0L
1]
0Z
0^
#7000000
b1111001 !
b1111101 !
b1110101 !
b1010101 !
b11010101 !
b11010100 !
0o
1m
0l
1k
0j
1h
0,
0y
1\
0X
0Q
1G
06
05
14
03
1^
0]
1Z
0S
1Y
1V
0O
1L
0^
0Z
#7500000
b10010100 !
b10010110 !
b10011110 !
1n
1l
0i
1,
#8000000
0"
b11110 !
b11111 !
b11101 !
b10101 !
07
1o
0n
0l
0h
08
0,
1y
0\
1X
1Q
0G
16
15
04
13
1^
1Z
1S
0Y
0V
1O
0L
1]
0Z
0^
#8500000
b110101 !
b1110101 !
b11110101 !
b11111101 !
1l
1j
1i
1h
1,
#9000000
b11101101 !
b11101100 !
b11101110 !
b10101110 !
b10100110 !
0o
1n
0l
0k
0i
0,
0y
1\
0X
0Q
1G
06
05
14
03
1^
0]
1Z
0S
1Y
1V
0O
1L
0^
0Z
#9500000
b10100010 !
b10000010 !
b10 !
b0 !
0n
0m
0j
0h
1,
#10000000
1"
b1000 !
b101000 !
b10101000 !
b10101010 !
17
1n
1l
1j
1h
18
0,
1?
0=
1E
0@
0>
0_
0[
1W
0T
0P
1M
1J
1F
0$
0%
1&
0'
0(
1)
1*
1+
#10500000
b10100010 !
b10000010 !
b10 !
b0 !
0n
0l
0j
0h
1,
#11500000
b10000 !
b1010000 !
b1011000 !
b1111000 !
b1111010 !
1n
1l
1k
1j
1i
0,
#12000000
b1111110 !
0"
b11111110 !
b11101110 !
b11001110 !
b11001100 !
0n
1m
0k
0j
1h
07
08
1,
#12500000
b11001101 !
b11000101 !
b11000001 !
b11000011 !
1o
1n
0m
0l
0,
#13000000
b11010011 !
b11010010 !
0o
1k
1,
#13500000
b10010010 !
b10110010 !
b10110000 !
b10100000 !
b10100001 !
1o
0n
0k
1j
0i
0,
#14000000
1"
b10101001 !
b10101101 !
b11101101 !
b11001101 !
b11001100 !
17
0o
1m
1l
0j
1i
18
1,
0A
0?
0E
0B
19
1@
0b
1d
1e
0g
1a
0V
1O
1N
0L
0D
1Z
0R
0O
1S
#14500000
b1001100 !
b1100 !
b101100 !
1j
0i
0h
0,
1b
0a
0`
1V
0Z
1^
#15000000
b101110 !
b111110 !
b111111 !
b10111111 !
b11111111 !
1o
1n
1k
1i
1h
1,
1g
1f
1c
1a
1`
1D
1H
1U
0S
1Z
0^
0K
0I
0Y
0V
1L
1]
0Z
1^
#16000000
0"
b11110111 !
b11110011 !
b11010011 !
b11010001 !
b11000001 !
b11000000 !
b10000000 !
07
0o
0n
0m
0l
0k
0j
0i
08
0,
0g
0f
0e
0d
0c
0b
0a
0D
0H
0L
1R
1O
0U
1S
1Y
1V
0]
1Z
1K
1I
0S
0V
0Z
0^
0N
1L
0O
#16500000
b0 !
b1000 !
b1100 !
b1110 !
b1111 !
b1001111 !
1o
1n
1m
1l
1i
0h
1,
1g
1f
1e
1d
1a
0`
1D
1H
1N
0L
1O
1Z
1^
0K
0I
0R
0O
1L
1S
#17000000
b1101111 !
b1101011 !
b1101001 !
b1101000 !
0o
0n
0m
1j
0,
0g
0f
0e
1b
0D
0H
0L
1V
1K
1I
0N
1L
1R
1O
0S
#17500000
b1111000 !
b1110000 !
b110000 !
0l
1k
0i
1,
0d
1c
0a
0O
1S
0Z
#18000000
1"
b10110000 !
b10110100 !
b10110110 !
b10110111 !
b10111111 !
17
1o
1n
1m
1l
1h
18
0,
1g
1f
1e
1d
1`
1D
1H
1N
0L
1O
0^
0K
0I
0R
0O
1L
1U
0S
0Y
0V
1Z
1A
1<
1C
1B
09
1s
1w
1r
1t
1Q
0D
13
16
15
1S
1I
1V
1O
#18500000
b10011111 !
b11011111 !
b1011111 !
b1011011 !
b1011001 !
0n
0m
0j
1i
0h
1,
0v
0u
0r
1q
0p
0G
04
06
1X
0\
0I
0L
0V
1]
0Z
1^
0^
#19000000
b1011000 !
b1111000 !
b11111000 !
b11111100 !
b11111110 !
0o
1n
1m
1j
1h
0,
0w
1v
1u
1r
1p
1D
03
1G
14
16
1\
1L
1V
1^
#19500000
b11101110 !
b10101110 !
b10101111 !
b101111 !
b101101 !
1o
0n
0k
0i
0h
1,
1w
0v
0s
0q
0p
0D
13
0G
0Q
0X
0\
0S
0]
1Z
0^
1^
#20000000
0"
b1101 !
b11101 !
b11100 !
b10011100 !
b10011110 !
07
0o
1n
1k
0j
1h
08
0,
0w
1v
1s
0r
1p
1D
03
1G
1Q
06
1\
1S
0V
0^
#20500000
b10010110 !
b10010010 !
b10000010 !
b10 !
b0 !
0n
0m
0l
0k
0h
1,
0v
0u
0t
0s
0p
0G
04
05
0Q
0\
1K
1I
0L
0O
0S
1^
0N
1L
1R
1O
0U
1S
1Y
1V
0Z
#21000000
b1000000 !
b1010000 !
b11010000 !
1k
1i
1h
0,
1s
1q
1p
1Q
1X
1\
1U
0S
1Z
0^
0Y
0V
1]
0Z
1^
#21500000
b11010001 !
b11011001 !
b10011001 !
1o
1l
0i
1,
1w
1t
0q
0D
13
15
0X
0K
0I
0R
0O
0]
1Z
1N
0L
1S
0^
1O
#22000000
1"
b10011101 !
b10011111 !
b10001111 !
b10001110 !
b10000110 !
17
0o
1n
1m
0l
0k
18
0,
0w
1v
1u
0t
0s
1D
03
1G
14
05
0Q
1L
0O
0S
1=
0<
0C
1>
#22500000
b10100110 !
b10110110 !
b10110111 !
b10111111 !
1o
1l
1k
1j
1,
1y
0\
1X
1Q
0G
16
15
04
13
1^
1]
0Z
1S
1V
1O
0L
0^
#23000000
b10111011 !
b10111001 !
b10101001 !
b10100001 !
0n
0m
0l
0k
0,
#23500000
b100001 !
b100000 !
b100100 !
b110100 !
0o
1m
1k
0h
1,
0y
1\
0X
0Q
1G
06
05
14
03
1^
0]
1Z
0S
0V
0O
1L
0^
#24000000
b1110100 !
0"
b1010100 !
b1010110 !
b1010111 !
b1010011 !
b1000011 !
1o
1n
0m
0k
0j
1i
07
08
0,
1y
0\
1X
1Q
0G
16
15
04
13
1^
1]
0Z
1S
1V
1O
0L
0^
#24500000
b11000011 !
b10000011 !
b10000010 !
b10000110 !
0o
1m
0i
1h
1,
0y
1\
0X
0Q
1G
06
05
14
03
1^
0]
1Z
0S
0V
0O
1L
0^
#25000000
b10010110 !
b10110 !
b1010110 !
b1010111 !
1o
1k
1i
0h
0,
1y
0\
1X
1Q
0G
16
15
04
13
1^
1]
0Z
1S
1V
1O
0L
0^
#25500000
b1011111 !
b1011101 !
b1001101 !
b1101 !
0n
1l
0k
0i
1,
#26000000
1"
b101101 !
b101001 !
b1101001 !
17
0m
1j
1i
18
0,
1?
0=
1E
0@
0>
1T
1P
0M
0J
1'
1(
0)
0*
#26500000
b1101000 !
b1111000 !
b1111100 !
b111100 !
0o
1m
1k
0i
1,
#27000000
b111000 !
b1111000 !
0m
1i
0,
#27500000
b11111000 !
b11011000 !
b11001000 !
b11001100 !
1m
0k
0j
1h
1,
#28000000
b11001110 !
0"
b11001111 !
b1001111 !
b1001011 !
1o
1n
0m
0h
07
08
0,
#28500000
b1011011 !
b1011001 !
0n
1k
1,
#29000000
b1111001 !
b11111001 !
b11111101 !
b11111111 !
1n
1m
1j
1h
0,
#29500000
b11110111 !
b10110111 !
b10100111 !
b10000111 !
b111 !
b11 !
b1 !
0n
0m
0l
0k
0j
0i
0h
1,
#30000000
1"
b1001 !
b101001 !
b101101 !
b101111 !
17
1n
1m
1l
1j
18
0,
0A
0?
0E
0B
19
1@
0`
0c
1^
0S
#30500000
b1101111 !
b1111111 !
b1011111 !
b1011011 !
b1011001 !
0n
0m
1k
0j
1i
1,
0f
0e
1c
0b
1a
0H
0N
1L
1S
0V
1Z
1K
1I
0O
0L
#31000000
b1011000 !
b11000 !
b11100 !
b11110 !
0o
1n
1m
0i
0,
0g
1f
1e
0a
0D
1H
1L
0Z
0K
0I
1N
0L
1O
#31500000
b1110 !
b101110 !
b101111 !
1o
0k
1j
1,
1g
0c
1b
1D
0S
1V
#32000000
0"
b101011 !
b101001 !
b111001 !
b11001 !
07
0n
0m
1k
0j
08
0,
0f
0e
1c
0b
0H
0N
1L
1S
0V
1K
1I
0O
0L
#32500000
b10001 !
b1010001 !
b1010101 !
1m
0l
1i
1,
1e
0d
1a
1L
1R
1O
1Z
0S
#33000000
b11010101 !
b11010111 !
b11110111 !
b11111111 !
1n
1l
1j
1h
0,
1f
1d
1b
1`
1H
0R
0O
1V
0^
0K
0I
1S
1N
0L
1O
#33500000
b11111110 !
b11101110 !
b11101010 !
b11101000 !
0o
0n
0m
0k
1,
0g
0f
0e
0c
0D
0H
0N
1L
0S
1K
1I
0O
0L
#34000000
1"
b11001000 !
b11001001 !
b11001101 !
17
1o
1m
0j
18
0,
1g
1e
0b
1D
1L
0V
1A
1<
1C
1B
09
1q
0v
1w
1t
0X
1G
0D
05
0Z
0K
0I
1R
1O
1N
0L
0U
1S
0R
0O
1Y
1V
1U
0S
0]
1Z
0Y
0V
1^
1]
0Z
0^
#34500000
b11011101 !
b11111101 !
1k
1j
1,
1s
1r
0Q
06
0U
1S
1Y
1V
0V
0]
1Z
1^
#35000000
b11110101 !
b11100101 !
0l
0k
0,
0t
0s
15
1Q
1O
1U
0S
1V
#35500000
b10100101 !
b100101 !
b100100 !
b100000 !
b0 !
0o
0m
0j
0i
0h
1,
0w
0u
0r
0q
0p
1D
14
16
1X
1\
1L
0Y
0V
1]
0Z
0^
1Z
1^
#36000000
0"
b10000 !
b10001 !
b10101 !
07
1o
1m
1k
08
0,
1w
1u
1s
0D
04
0Q
0L
0U
1S
1Y
1V
0Z
#36500000
b11101 !
b1101 !
1l
0k
1,
1t
0s
05
1Q
0O
1U
0S
0Y
0V
1Z
#37000000
b1111 !
b1001111 !
b11001111 !
b11101111 !
b11101110 !
b11101010 !
b11111010 !
0o
1n
0m
1k
1j
1i
1h
0,
0w
1v
0u
1s
1r
1q
1p
1D
0G
14
0Q
06
0X
0\
1K
1I
1L
0U
1S
1Y
1V
0Z
0^
0L
0V
0]
1Z
1^
#37500000
b11110010 !
b11110000 !
b10110000 !
b110000 !
b110100 !
0n
1m
0l
0i
0h
1,
0v
1u
0t
0q
0p
1G
04
15
1X
1\
0K
0I
0N
1L
1O
1]
0Z
0^
1N
0L
0O
1^
1O
#38000000
1"
b10100 !
b10101 !
b1010101 !
17
1o
0j
1i
18
0,
1w
0r
1q
0D
16
0X
1V
0]
1Z
0^
1=
0<
0C
1>
#38500000
b11010101 !
b11110101 !
b11110100 !
b10110100 !
0o
1j
0i
1h
1,
0y
0\
1X
1Q
0G
06
05
14
1^
1]
0Z
1U
0S
1K
1I
0V
0O
1L
0^
1V
0L
#39000000
b10100100 !
b10100110 !
b10000110 !
1n
0k
0j
0,
#39500000
b10001110 !
b1110 !
b1001110 !
b1011110 !
1l
1k
1i
0h
1,
#40000000
b1011010 !
0"
b1011011 !
b1010011 !
b11010011 !
b11000011 !
1o
0m
0l
0k
1h
07
08
0,
1y
1\
0X
0Q
1G
16
15
04
1^
0]
1Z
0U
1S
0K
0I
0Y
0V
1O
0N
1L
0^
1Y
1V
1N
0L
1]
0Z
0O
0]
1Z
1O
1^
0^
#40500000
b11000001 !
b11100001 !
b10100001 !
b10100101 !
b10100100 !
b10101100 !
b101100 !
b111100 !
0o
0n
1m
1l
1k
1j
0i
0h
1,
0y
0\
1X
1Q
0G
06
05
14
1^
1]
0Z
1U
0S
1K
1I
0V
0O
1L
0^
1V
0L
#41000000
b111101 !
b10111101 !
1o
1h
0,
1y
1\
0X
0Q
1G
16
15
04
1^
0]
1Z
0U
1S
0K
0I
0Y
0V
1O
0N
1L
0^
1Y
1V
1N
0L
1]
0Z
0O
0]
1Z
1O
1^
0^
#41500000
b10111111 !
b11111111 !
b11110111 !
b11100111 !
b11100110 !
b1100110 !
0o
1n
0l
0k
1i
0h
1,
0y
0\
1X
1Q
0G
06
05
14
1^
1]
0Z
1U
0S
1K
1I
0V
0O
1L
0^
1V
0L
#42000000
1"
17
18
0,
1?
0=
1E
0@
0>
0T
0P
1J
0F
0'
0(
1*
0+
#42500000
b1000110 !
b1000010 !
b1000000 !
b0 !
b1000 !
b11000 !
b10011000 !
0n
0m
1l
1k
0j
0i
1h
1,
#43000000
b10111000 !
b10111100 !
b10111110 !
b11111110 !
b11110110 !
b11100110 !
b1100110 !
1n
1m
0l
0k
1j
1i
0h
0,
#43500000
b1000110 !
b110 !
b10110 !
b10010110 !
1k
0j
0i
1h
1,
#44000000
0"
b10010010 !
b10010000 !
b10000000 !
b0 !
07
0n
0m
0k
0h
08
0,
#44500000
b1 !
b1001 !
b101001 !
b101101 !
b101111 !
b111111 !
b10111111 !
1o
1n
1m
1l
1k
1j
1h
1,
#45000000
b10110111 !
b10110101 !
b10100101 !
0n
0l
0k
0,
#45500000
b10100100 !
b100100 !
b101100 !
0o
1l
0h
1,
#46000000
1"
b101000 !
b101010 !
b10101010 !
17
1n
0m
1h
18
0,
0A
0?
0E
0B
19
1@
1b
0e
0g
0a
1f
0Y
0V
0N
1L
1D
03
0]
1Z
1H
1]
0Z
1R
1O
1^
0^
0U
1S
1Y
1V
0]
1Z
1^
#46500000
b10111010 !
b10110010 !
b10110110 !
b10110100 !
0n
1m
0l
1k
1,
0f
1e
0d
1c
0H
1N
0L
0O
1U
0S
0I
1O
0Y
0V
1]
0Z
0^
#47000000
b11110100 !
b1110100 !
b1100100 !
b1100110 !
1n
0k
1i
0h
0,
1f
0c
1a
0`
1H
0U
1S
1Z
1^
1I
1Y
1V
0Z
#48000000
0"
07
08
1,
#48500000
b1100111 !
b1100011 !
b11100011 !
b11100001 !
1o
0n
0m
1h
0,
1g
0f
0e
1`
0D
13
0H
0N
1L
0^
0O
#49000000
b11000001 !
b11010001 !
b11010011 !
1n
1k
0j
1,
1f
1c
0b
1H
1U
0S
0V
0K
0I
1V
1N
0L
1O
#49500000
b11011011 !
b11011010 !
b11011110 !
b1011110 !
b1111110 !
0o
1m
1l
1j
0h
0,
0g
1e
1d
1b
0`
1D
03
1L
0R
0O
0Y
0V
1^
1K
1I
1S
1Z
0L
#50000000
1"
b1101110 !
b1101100 !
b1001100 !
17
0n
0k
0j
18
1,
0f
0c
0b
0H
0S
1Y
1V
0I
0Z
1A
1<
1C
1B
09
0s
0w
1t
0Q
0D
15
0U
1S
1O
0V
#50500000
b1100 !
b1101 !
b1001 !
b1011 !
b101011 !
1o
1n
0m
1j
0i
0,
1w
1v
0u
1r
0q
1D
1G
04
16
0X
1I
0N
1L
1V
0]
1Z
0O
0^
#51000000
b100011 !
b1100011 !
b1100010 !
b1100110 !
0o
1m
0l
1i
1,
0w
1u
0t
1q
0D
14
05
1X
1N
0L
1R
1O
1]
0Z
0R
0O
0S
1^
1S
#51500000
b11100110 !
b11110110 !
b11010110 !
b10010110 !
1k
0j
0i
1h
0,
1s
0r
0q
1p
1Q
06
0X
1\
1U
0S
0V
0]
1Z
0^
1V
1^
#52000000
0"
b10010100 !
b11010100 !
07
0n
1i
08
1,
0v
1q
0G
1X
0I
1]
0Z
0^
#52500000
b11011100 !
b11011000 !
b11011010 !
b10011010 !
1n
0m
1l
0i
0,
1v
0u
1t
0q
1G
04
15
0X
1I
0N
1L
1O
0]
1Z
0O
1^
#53000000
b10001010 !
b10101010 !
b10100010 !
b10100110 !
1m
0l
0k
1j
1,
1u
0t
0s
1r
14
05
0Q
16
1N
0L
1R
1O
0U
1S
0Y
0V
0R
0O
0S
1Y
1V
1]
0Z
1S
0]
1Z
0^
1^
#53500000
b10100111 !
b100111 !
b100101 !
b1100101 !
b1110101 !
b1010101 !
1o
0n
1k
0j
1i
0h
0,
1w
0v
1s
0r
1q
0p
1D
0G
1Q
06
1X
0\
0I
1U
0S
0V
1]
0Z
0^
1V
1^
#54000000
1"
b1010001 !
b1010000 !
b1010010 !
b1000010 !
17
0o
1n
0m
0k
18
1,
0w
1v
0u
0s
0D
1G
04
0Q
1I
0N
1L
0U
1S
1R
1O
0V
0S
1=
0<
0C
1>
#54500000
b1001010 !
b11001010 !
b10001010 !
b10001110 !
b10011110 !
1m
1l
1k
0i
1h
0,
#55000000
b10111110 !
b10110110 !
b11110110 !
b11100110 !
0l
0k
1j
1i
1,
#55500000
b11100010 !
b11101010 !
b11111010 !
0m
1l
1k
0,
#56000000
0"
b11111000 !
b10111000 !
b10110000 !
07
0n
0l
0i
08
1,
#56500000
b10110001 !
b10010001 !
b10000001 !
1o
0k
0j
0,
1y
1\
0X
1Q
0G
16
15
14
13
0^
0]
1Z
1S
1V
0R
0O
1N
0L
1^
1U
0S
1O
0Y
0V
1]
0Z
0^
#57000000
b10000101 !
b11000101 !
b11001101 !
b11001100 !
0o
1m
1l
1i
1,
0y
0\
1X
0Q
1G
06
05
04
03
1^
1Z
0U
1S
1Y
1V
0O
0N
1L
0V
0Z
1R
1O
0S
#57500000
b1001100 !
b1001110 !
b1001010 !
b1010 !
b1011 !
1o
1n
0m
0i
0h
0,
1y
1\
0X
1Q
0G
16
15
14
13
0^
0]
1Z
1S
1V
0R
0O
1N
0L
1^
1U
0S
1O
0Y
0V
1]
0Z
0^
#58000000
1"
b11011 !
b10011 !
b10010011 !
b10010111 !
b10010110 !
17
0o
1m
0l
1k
1h
18
1,
0y
0\
1X
0Q
1G
06
05
04
03
1^
1Z
0U
1S
1Y
1V
0O
0N
1L
0V
0Z
1R
1O
0S
1?
0=
1E
0@
0>
1_
0W
1P
1M
1$
0&
1(
1)
#58500000
b11010110 !
b11000110 !
b11000010 !
0m
0k
1i
0,
#59000000
b11001010 !
b10001010 !
b10011010 !
b10011110 !
1m
1l
1k
0i
1,
#59500000
b10111110 !
b111110 !
b111111 !
b101111 !
b101011 !
1o
0m
0k
1j
0h
0,
#60000000
b101001 !
0"
b1101001 !
0n
1i
07
08
1,
#60500000
b1100001 !
b1000001 !
b11000001 !
b11000000 !
b11010000 !
0o
0l
1k
0j
1h
0,
#61000000
b10010000 !
b10011000 !
b10011001 !
1o
1l
0i
1,
#61500000
b10111001 !
b111001 !
b101001 !
b1101001 !
0k
1j
1i
0h
0,
#62000000
b1101101 !
b1101111 !
1"
b1100111 !
b11100111 !
b10100111 !
1n
1m
0l
0i
1h
17
18
1,
0A
0?
0E
0B
19
1@
1`
1b
0d
1g
0a
1f
0^
1V
0O
1D
0]
1Z
1H
1^
0K
0I
1N
0L
1O
#62500000
b10100110 !
b10000110 !
b10000010 !
b10001010 !
b1010 !
0o
0m
1l
0j
0h
0,
0g
0e
1d
0b
0`
0D
0N
1L
0R
0O
0V
0^
1R
1O
1S
0S
#63000000
b1011 !
b1111 !
b111 !
b10000111 !
1o
1m
0l
1h
1,
1g
1e
0d
1`
1D
1N
0L
0O
1^
1O
#63500000
b10010111 !
b10010101 !
b10110101 !
b10110100 !
0o
0n
1k
1j
0,
0g
0f
1c
1b
0D
0H
1S
1V
1K
1I
0N
1L
0O
